 {/* {Password Section} */}

            <TextInput
                placeholder={"Password"}
                secureTextEntry
                placeholderTextColor={"ED3D3D3"}
                style={{
                    color: "#FFF",
                    fontFamily: Fonts.Nunito.Bold,
                    fontSize: 16
                }}
            />
        </View>
        <Text 
        fontSize={10}
        color={"#F6E58D"}
        bold
        style={{ marginTop: 5, marginLeft: 5 }}
        >
            Forgot Password?

        </Text>

<EyeIcon>

<Image source ={image.BG_jj}









